<?xml version="1.0" encoding="UTF-8" standalone="no"?>
<!-- Created with Inkscape (http://www.inkscape.org/) -->

<svg
   xmlns:dc="http://purl.org/dc/elements/1.1/"
   xmlns:cc="http://creativecommons.org/ns#"
   xmlns:rdf="http://www.w3.org/1999/02/22-rdf-syntax-ns#"
   xmlns:svg="http://www.w3.org/2000/svg"
   xmlns="http://www.w3.org/2000/svg"
   xmlns:sodipodi="http://sodipodi.sourceforge.net/DTD/sodipodi-0.dtd"
   xmlns:inkscape="http://www.inkscape.org/namespaces/inkscape"
   width="297mm"
   height="210mm"
   viewBox="0 0 297 210"
   version="1.1"
   id="svg6518"
   inkscape:version="0.92.4 (5da689c313, 2019-01-14)"
   sodipodi:docname="Capitulo6Ejemplo2.svg">
  <defs
     id="defs6512">
    <pattern
       y="0"
       x="0"
       height="6"
       width="6"
       patternUnits="userSpaceOnUse"
       id="EMFhbasepattern" />
    <pattern
       y="0"
       x="0"
       height="6"
       width="6"
       patternUnits="userSpaceOnUse"
       id="EMFhbasepattern-1" />
    <pattern
       y="0"
       x="0"
       height="6"
       width="6"
       patternUnits="userSpaceOnUse"
       id="EMFhbasepattern-5" />
  </defs>
  <sodipodi:namedview
     id="base"
     pagecolor="#ffffff"
     bordercolor="#666666"
     borderopacity="1.0"
     inkscape:pageopacity="0.0"
     inkscape:pageshadow="2"
     inkscape:zoom="0.98994949"
     inkscape:cx="451.10149"
     inkscape:cy="383.61406"
     inkscape:document-units="mm"
     inkscape:current-layer="layer6"
     showgrid="false"
     inkscape:snap-global="false"
     inkscape:window-width="1366"
     inkscape:window-height="705"
     inkscape:window-x="-8"
     inkscape:window-y="-8"
     inkscape:window-maximized="1" />
  <metadata
     id="metadata6515">
    <rdf:RDF>
      <cc:Work
         rdf:about="">
        <dc:format>image/svg+xml</dc:format>
        <dc:type
           rdf:resource="http://purl.org/dc/dcmitype/StillImage" />
        <dc:title></dc:title>
      </cc:Work>
    </rdf:RDF>
  </metadata>
  <g
     inkscape:groupmode="layer"
     id="layer6"
     inkscape:label="Capa 3"
     style="display:inline">
    <path
       inkscape:connector-curvature="0"
       id="path1325-7"
       d="M 98.341025,97.599501 201.8125,66.490726"
       style="display:inline;fill:none;stroke:#0c7cba;stroke-width:0.4872835;stroke-linecap:butt;stroke-linejoin:miter;stroke-miterlimit:4;stroke-dasharray:none;stroke-opacity:1" />
    <path
       sodipodi:nodetypes="csc"
       inkscape:connector-curvature="0"
       id="path1335-2"
       d="m 198.09878,127.5195 c 0,0 -7.45643,42.86968 -39.99803,43.55143 -32.53313,0.68159 -50.23824,7.29074 -70.30639,-28.86581"
       style="display:inline;fill:none;stroke:#0c7cba;stroke-width:0.76437539;stroke-linecap:butt;stroke-linejoin:miter;stroke-miterlimit:4;stroke-dasharray:2.29312609, 2.29312609;stroke-dashoffset:0;stroke-opacity:1" />
    <g
       style="display:inline"
       id="g1368-14-12"
       transform="matrix(-0.99998768,-0.00889825,0.00861313,-3.1112169,297.50095,660.89289)">
      <path
         style="fill:none;stroke:#000000;stroke-width:0.585352;stroke-linecap:butt;stroke-linejoin:miter;stroke-miterlimit:4;stroke-dasharray:none;stroke-opacity:1"
         d="m 100.09309,174.72362 0.27486,13.59544"
         id="path1329-81-9"
         inkscape:connector-curvature="0" />
      <text
         id="text1350-76-1"
         y="245.51529"
         x="77.303139"
         style="font-style:normal;font-variant:normal;font-weight:400;font-size:3.00890756px;line-height:125%;font-family:'Segoe UI Emoji';text-align:start;letter-spacing:0px;word-spacing:0px;text-anchor:start;fill:#000000;fill-opacity:1;stroke:none;stroke-width:0.20486178"
         xml:space="preserve"
         transform="matrix(1.2915084,-0.0014793,-0.004455,0.77429351,0,0)"><tspan
           id="tspan1348-63-5"
           y="245.51529"
           x="77.303139"
           sodipodi:role="line"
           style="stroke-width:0.20486178"><tspan
             id="tspan1344-4-83"
             style="font-style:normal;font-variant:normal;font-weight:400;font-size:3.00890756px;font-family:'Segoe UI Emoji';fill:#000000;stroke-width:0.20486178"
             dy="0"
             dx="0">▼</tspan><tspan
             id="tspan1346-46-1"
             style="font-style:normal;font-variant:normal;font-weight:400;font-size:3.00890756px;font-family:Calibri;fill:#000000;stroke-width:0.20486178"
             dy="0"
             dx="0"> </tspan></tspan></text>
    </g>
    <g
       style="display:inline"
       id="g1683-4"
       transform="matrix(0.84087946,0,0,1,8.3779287,-57.791592)">
      <path
         style="fill:none;stroke:#000000;stroke-width:0.565;stroke-linecap:butt;stroke-linejoin:miter;stroke-miterlimit:4;stroke-dasharray:none;stroke-opacity:1"
         d="m 89.26802,174.32329 c 149.67093,0.26727 149.67093,0.26727 149.67093,0.26727"
         id="path514-7"
         inkscape:connector-curvature="0" />
      <text
         id="text1665-3"
         y="142.8988"
         x="296.71558"
         style="font-style:normal;font-variant:normal;font-weight:400;font-size:7.60175419px;line-height:125%;font-family:'Segoe UI Emoji';text-align:start;letter-spacing:0px;word-spacing:0px;text-anchor:start;fill:#000000;fill-opacity:1;stroke:none;stroke-width:0.51756626"
         xml:space="preserve"
         transform="scale(0.80391189,1.2439174)"><tspan
           id="tspan1663-9"
           y="142.8988"
           x="296.71558"
           sodipodi:role="line"
           style="stroke-width:0.51756626"><tspan
             id="tspan1659-4"
             style="font-style:normal;font-variant:normal;font-weight:400;font-size:7.60175419px;font-family:'Segoe UI Emoji';fill:#000000;stroke-width:0.51756626"
             dy="0"
             dx="0">►</tspan><tspan
             id="tspan1661-6"
             style="font-style:normal;font-variant:normal;font-weight:400;font-size:7.60175419px;font-family:Calibri;fill:#000000;stroke-width:0.51756626"
             dy="0"
             dx="0"> </tspan></tspan></text>
    </g>
    <text
       transform="scale(0.96962495,1.0313266)"
       id="text1787-0"
       y="118.09038"
       x="82.199013"
       style="font-style:normal;font-weight:normal;font-size:4.61203337px;line-height:1.25;font-family:sans-serif;letter-spacing:0px;word-spacing:0px;display:inline;fill:#000000;fill-opacity:1;stroke:none;stroke-width:0.11530083"
       xml:space="preserve"><tspan
         style="stroke-width:0.11530083"
         y="118.09038"
         x="82.199013"
         id="tspan1785-9"
         sodipodi:role="line">0</tspan></text>
    <text
       transform="scale(0.96962495,1.0313266)"
       id="text1787-5-1"
       y="118.36231"
       x="103.36036"
       style="font-style:normal;font-weight:normal;font-size:4.61203337px;line-height:1.25;font-family:sans-serif;letter-spacing:0px;word-spacing:0px;display:inline;fill:#000000;fill-opacity:1;stroke:none;stroke-width:0.11530083"
       xml:space="preserve"><tspan
         id="tspan1879-9"
         style="stroke-width:0.11530083"
         y="118.36231"
         x="103.36036"
         sodipodi:role="line">1</tspan></text>
    <text
       transform="scale(0.96962495,1.0313266)"
       id="text1787-3-5"
       y="119.74319"
       x="123.48225"
       style="font-style:normal;font-weight:normal;font-size:4.61203337px;line-height:1.25;font-family:sans-serif;letter-spacing:0px;word-spacing:0px;display:inline;fill:#000000;fill-opacity:1;stroke:none;stroke-width:0.11530083"
       xml:space="preserve"><tspan
         style="stroke-width:0.11530083"
         y="119.74319"
         x="123.48225"
         id="tspan1785-2-5"
         sodipodi:role="line">2</tspan></text>
    <text
       transform="scale(0.96962495,1.0313266)"
       id="text1787-1-4"
       y="119.79684"
       x="144.89757"
       style="font-style:normal;font-weight:normal;font-size:4.61203337px;line-height:1.25;font-family:sans-serif;letter-spacing:0px;word-spacing:0px;display:inline;fill:#000000;fill-opacity:1;stroke:none;stroke-width:0.11530083"
       xml:space="preserve"><tspan
         style="stroke-width:0.11530083"
         y="119.79684"
         x="144.89757"
         id="tspan1785-7-8"
         sodipodi:role="line">3</tspan></text>
    <text
       transform="scale(0.96962495,1.0313266)"
       id="text1787-34-5"
       y="119.95784"
       x="165.34235"
       style="font-style:normal;font-weight:normal;font-size:4.61203337px;line-height:1.25;font-family:sans-serif;letter-spacing:0px;word-spacing:0px;display:inline;fill:#000000;fill-opacity:1;stroke:none;stroke-width:0.11530083"
       xml:space="preserve"><tspan
         style="stroke-width:0.11530083"
         y="119.95784"
         x="165.34235"
         id="tspan1785-74-0"
         sodipodi:role="line">4</tspan></text>
    <text
       transform="scale(0.96962495,1.0313266)"
       id="text1787-14-5"
       y="119.91721"
       x="185.21629"
       style="font-style:normal;font-weight:normal;font-size:4.61203337px;line-height:1.25;font-family:sans-serif;letter-spacing:0px;word-spacing:0px;display:inline;fill:#000000;fill-opacity:1;stroke:none;stroke-width:0.11530083"
       xml:space="preserve"><tspan
         style="stroke-width:0.11530083"
         y="119.91721"
         x="185.21629"
         id="tspan1785-3-9"
         sodipodi:role="line">5</tspan></text>
    <text
       transform="scale(0.96962495,1.0313266)"
       id="text1787-2-2"
       y="120.23004"
       x="199.6328"
       style="font-style:normal;font-weight:normal;font-size:4.61203337px;line-height:1.25;font-family:sans-serif;letter-spacing:0px;word-spacing:0px;display:inline;fill:#000000;fill-opacity:1;stroke:none;stroke-width:0.11530083"
       xml:space="preserve"><tspan
         style="stroke-width:0.11530083"
         y="120.23004"
         x="199.6328"
         id="tspan1785-4-0"
         sodipodi:role="line">6   pav</tspan></text>
    <g
       style="display:inline"
       id="g1368-14-4-6"
       transform="matrix(-0.99998768,-0.00508839,0.00861313,-1.7791239,279.37783,411.67479)">
      <path
         style="fill:none;stroke:#000000;stroke-width:0.73768568;stroke-linecap:butt;stroke-linejoin:miter;stroke-miterlimit:4;stroke-dasharray:none;stroke-opacity:1"
         d="m 100.01619,165.87178 0.34352,21.41408"
         id="path1329-81-2-7"
         inkscape:connector-curvature="0" />
      <text
         id="text1350-76-5-6"
         y="189.98271"
         x="98.743851"
         style="font-style:normal;font-variant:normal;font-weight:400;font-size:3.88606763px;line-height:125%;font-family:'Segoe UI Emoji';text-align:start;letter-spacing:0px;word-spacing:0px;text-anchor:start;fill:#000000;fill-opacity:1;stroke:none;stroke-width:0.26458332"
         xml:space="preserve"><tspan
           id="tspan1348-63-4-5"
           y="189.98271"
           x="98.743851"
           sodipodi:role="line"
           style="stroke-width:0.26458332"><tspan
             id="tspan1344-4-8-7"
             style="font-style:normal;font-variant:normal;font-weight:400;font-size:3.88606763px;font-family:'Segoe UI Emoji';fill:#000000;stroke-width:0.26458332"
             dy="0"
             dx="0">▼</tspan><tspan
             id="tspan1346-46-8-4"
             style="font-style:normal;font-variant:normal;font-weight:400;font-size:3.88606763px;font-family:Calibri;fill:#000000;stroke-width:0.26458332"
             dy="0"
             dx="0"> </tspan></tspan></text>
    </g>
    <g
       style="display:inline"
       id="g1368-14-1"
       transform="matrix(-0.99998768,-0.00408717,0.00861313,-1.4290526,261.02009,350.95448)">
      <path
         style="fill:none;stroke:#000000;stroke-width:0.76867568;stroke-linecap:butt;stroke-linejoin:miter;stroke-miterlimit:4;stroke-dasharray:none;stroke-opacity:1"
         d="m 100.00037,164.03475 0.35934,23.25111"
         id="path1329-81-3"
         inkscape:connector-curvature="0" />
      <text
         id="text1350-76-2"
         y="189.98271"
         x="98.743851"
         style="font-style:normal;font-variant:normal;font-weight:400;font-size:3.88606763px;line-height:125%;font-family:'Segoe UI Emoji';text-align:start;letter-spacing:0px;word-spacing:0px;text-anchor:start;fill:#000000;fill-opacity:1;stroke:none;stroke-width:0.26458332"
         xml:space="preserve"><tspan
           id="tspan1348-63-3"
           y="189.98271"
           x="98.743851"
           sodipodi:role="line"
           style="stroke-width:0.26458332"><tspan
             id="tspan1344-4-5"
             style="font-style:normal;font-variant:normal;font-weight:400;font-size:3.88606763px;font-family:'Segoe UI Emoji';fill:#000000;stroke-width:0.26458332"
             dy="0"
             dx="0">▼</tspan><tspan
             id="tspan1346-46-4"
             style="font-style:normal;font-variant:normal;font-weight:400;font-size:3.88606763px;font-family:Calibri;fill:#000000;stroke-width:0.26458332"
             dy="0"
             dx="0"> </tspan></tspan></text>
    </g>
    <g
       style="display:inline"
       id="g1368-14-3-1"
       transform="matrix(-0.99998768,-0.00306091,0.00861313,-1.0702294,240.6064,288.83623)">
      <path
         style="fill:none;stroke:#000000;stroke-width:0.81520581;stroke-linecap:butt;stroke-linejoin:miter;stroke-miterlimit:4;stroke-dasharray:none;stroke-opacity:1"
         d="m 99.975389,161.13459 0.384321,26.15127"
         id="path1329-81-4-7"
         inkscape:connector-curvature="0" />
      <text
         id="text1350-76-4-2"
         y="189.98271"
         x="98.743851"
         style="font-style:normal;font-variant:normal;font-weight:400;font-size:3.88606763px;line-height:125%;font-family:'Segoe UI Emoji';text-align:start;letter-spacing:0px;word-spacing:0px;text-anchor:start;fill:#000000;fill-opacity:1;stroke:none;stroke-width:0.26458332"
         xml:space="preserve"><tspan
           id="tspan1348-63-6-4"
           y="189.98271"
           x="98.743851"
           sodipodi:role="line"
           style="stroke-width:0.26458332"><tspan
             id="tspan1344-4-1-1"
             style="font-style:normal;font-variant:normal;font-weight:400;font-size:3.88606763px;font-family:'Segoe UI Emoji';fill:#000000;stroke-width:0.26458332"
             dy="0"
             dx="0">▼</tspan><tspan
             id="tspan1346-46-6-2"
             style="font-style:normal;font-variant:normal;font-weight:400;font-size:3.88606763px;font-family:Calibri;fill:#000000;stroke-width:0.26458332"
             dy="0"
             dx="0"> </tspan></tspan></text>
    </g>
    <g
       style="display:inline"
       id="g1368-14-2-8"
       transform="matrix(-0.99998768,-0.00215982,0.00861313,-0.75516499,223.19753,255.62091)">
      <path
         style="fill:none;stroke:#000000;stroke-width:0.85874492;stroke-linecap:butt;stroke-linejoin:miter;stroke-miterlimit:4;stroke-dasharray:none;stroke-opacity:1"
         d="m 102.06903,184.7881 0.40902,29.01933"
         id="path1329-81-6-2"
         inkscape:connector-curvature="0" />
      <text
         id="text1350-76-9-5"
         y="157.81778"
         x="138.41467"
         style="font-style:normal;font-variant:normal;font-weight:400;font-size:5.38000345px;line-height:125%;font-family:'Segoe UI Emoji';text-align:start;letter-spacing:0px;word-spacing:0px;text-anchor:start;fill:#000000;fill-opacity:1;stroke:none;stroke-width:0.36629808"
         xml:space="preserve"
         transform="matrix(0.72233325,0.00189365,0.00570283,1.3844175,0,0)"><tspan
           id="tspan1348-63-1-7"
           y="157.81778"
           x="138.41467"
           sodipodi:role="line"
           style="stroke-width:0.36629808"><tspan
             id="tspan1344-4-7-2"
             style="font-style:normal;font-variant:normal;font-weight:400;font-size:5.38000345px;font-family:'Segoe UI Emoji';fill:#000000;stroke-width:0.36629808"
             dy="0"
             dx="0">▼</tspan><tspan
             id="tspan1346-46-9-5"
             style="font-style:normal;font-variant:normal;font-weight:400;font-size:5.38000345px;font-family:Calibri;fill:#000000;stroke-width:0.36629808"
             dy="0"
             dx="0"> </tspan></tspan></text>
    </g>
    <g
       style="display:inline"
       id="g1368-14-17-0"
       transform="matrix(-0.99998768,-0.00369942,0.00861313,-1.2934839,200.68596,342.74921)">
      <path
         style="fill:none;stroke:#000000;stroke-width:0.565;stroke-linecap:butt;stroke-linejoin:miter;stroke-miterlimit:4;stroke-dasharray:none;stroke-opacity:1"
         d="m 100.09244,174.7242 0.26727,12.56166"
         id="path1329-81-65-0"
         inkscape:connector-curvature="0" />
      <text
         id="text1350-76-98-2"
         y="189.98271"
         x="98.743851"
         style="font-style:normal;font-variant:normal;font-weight:400;font-size:3.88606763px;line-height:125%;font-family:'Segoe UI Emoji';text-align:start;letter-spacing:0px;word-spacing:0px;text-anchor:start;fill:#000000;fill-opacity:1;stroke:none;stroke-width:0.26458332"
         xml:space="preserve"><tspan
           id="tspan1348-63-0-1"
           y="189.98271"
           x="98.743851"
           sodipodi:role="line"
           style="stroke-width:0.26458332"><tspan
             id="tspan1344-4-9-6"
             style="font-style:normal;font-variant:normal;font-weight:400;font-size:3.88606763px;font-family:'Segoe UI Emoji';fill:#000000;stroke-width:0.26458332"
             dy="0"
             dx="0">▼</tspan><tspan
             id="tspan1346-46-7-4"
             style="font-style:normal;font-variant:normal;font-weight:400;font-size:3.88606763px;font-family:Calibri;fill:#000000;stroke-width:0.26458332"
             dy="0"
             dx="0"> </tspan></tspan></text>
    </g>
    <text
       id="text4166-2"
       y="139.13142"
       x="128.08484"
       style="font-style:normal;font-variant:normal;font-weight:400;font-size:6.3499999px;line-height:125%;font-family:'Cambria Math';text-align:start;letter-spacing:0px;word-spacing:0px;text-anchor:start;display:inline;fill:#000000;fill-opacity:1;stroke:none;stroke-width:0.26458332"
       xml:space="preserve"><tspan
         id="tspan4164-8"
         y="139.13142"
         x="128.08484"
         sodipodi:role="line"
         style="font-size:6.3499999px;stroke-width:0.26458332">L=$200</tspan></text>
    <text
       id="text4201-1"
       y="157.41968"
       x="129.51059"
       style="font-style:normal;font-variant:normal;font-weight:400;font-size:3.88606763px;line-height:125%;font-family:'Cambria Math';text-align:start;letter-spacing:0px;word-spacing:0px;text-anchor:start;display:inline;fill:#000000;fill-opacity:1;stroke:none;stroke-width:0.26458332"
       xml:space="preserve"><tspan
         id="tspan4199-1"
         y="157.41968"
         x="129.51059"
         sodipodi:role="line"
         style="font-size:6.3499999px;stroke-width:0.26458332">n=6 pav</tspan></text>
    <text
       id="text4263"
       y="91.69558"
       x="95.810371"
       style="font-style:normal;font-variant:normal;font-weight:400;font-size:6.3499999px;line-height:125%;font-family:'Cambria Math';text-align:start;letter-spacing:0px;word-spacing:0px;text-anchor:start;display:inline;fill:#000000;fill-opacity:1;stroke:none;stroke-width:0.26458332"
       xml:space="preserve"><tspan
         id="tspan4261"
         y="91.69558"
         x="95.810371"
         sodipodi:role="line"
         style="font-size:4.93888903px;stroke-width:0.26458332">$800</tspan></text>
    <text
       id="text4479-8"
       y="86.05616"
       x="115.13106"
       style="font-style:normal;font-variant:normal;font-weight:400;font-size:4.94440174px;line-height:125%;font-family:'Cambria Math';text-align:start;letter-spacing:0px;word-spacing:0px;text-anchor:start;display:inline;fill:#000000;fill-opacity:1;stroke:none;stroke-width:0.26458332"
       xml:space="preserve"><tspan
         id="tspan4477-0"
         y="86.05616"
         x="115.13106"
         sodipodi:role="line"
         style="stroke-width:0.26458332">$1.000</tspan></text>
    <text
       id="text4510-0"
       y="80.221756"
       x="135.33514"
       style="font-style:normal;font-variant:normal;font-weight:400;font-size:4.94440174px;line-height:125%;font-family:'Cambria Math';text-align:start;letter-spacing:0px;word-spacing:0px;text-anchor:start;display:inline;fill:#000000;fill-opacity:1;stroke:none;stroke-width:0.26458332"
       xml:space="preserve"><tspan
         id="tspan4508-2"
         y="80.221756"
         x="135.33514"
         sodipodi:role="line"
         style="stroke-width:0.26458332">$1.200</tspan></text>
    <text
       id="text4543-9"
       y="75.107613"
       x="155.72983"
       style="font-style:normal;font-variant:normal;font-weight:400;font-size:4.94440174px;line-height:125%;font-family:'Cambria Math';text-align:start;letter-spacing:0px;word-spacing:0px;text-anchor:start;display:inline;fill:#000000;fill-opacity:1;stroke:none;stroke-width:0.26458332"
       xml:space="preserve"><tspan
         id="tspan4541-4"
         y="75.107613"
         x="155.72983"
         sodipodi:role="line"
         style="stroke-width:0.26458332">$1.400</tspan></text>
    <text
       id="text4575-7"
       y="68.698357"
       x="176.12843"
       style="font-style:normal;font-variant:normal;font-weight:400;font-size:4.94440174px;line-height:125%;font-family:'Cambria Math';text-align:start;letter-spacing:0px;word-spacing:0px;text-anchor:start;display:inline;fill:#000000;fill-opacity:1;stroke:none;stroke-width:0.26458332"
       xml:space="preserve"><tspan
         id="tspan4573-9"
         y="68.698357"
         x="176.12843"
         sodipodi:role="line"
         style="stroke-width:0.26458332">$1.600</tspan></text>
    <text
       id="text4606-4"
       y="60.170979"
       x="193.81476"
       style="font-style:normal;font-variant:normal;font-weight:400;font-size:4.94440174px;line-height:125%;font-family:'Cambria Math';text-align:start;letter-spacing:0px;word-spacing:0px;text-anchor:start;display:inline;fill:#000000;fill-opacity:1;stroke:none;stroke-width:0.26458332"
       xml:space="preserve"><tspan
         id="tspan4604-3"
         y="60.170979"
         x="193.81476"
         sodipodi:role="line"
         style="stroke-width:0.26458332">$1.800</tspan></text>
    <g
       style="display:inline"
       id="g1368-14-17-0-3"
       transform="matrix(0.99993617,-0.00894349,0.01014656,1.0707973,-18.417328,-69.667328)">
      <path
         style="fill:none;stroke:#000000;stroke-width:0.565;stroke-linecap:butt;stroke-linejoin:miter;stroke-miterlimit:4;stroke-dasharray:none;stroke-opacity:1"
         d="m 100.09244,174.7242 0.26727,12.56166"
         id="path1329-81-65-0-3"
         inkscape:connector-curvature="0" />
      <text
         id="text1350-76-98-2-0"
         y="189.98271"
         x="98.743851"
         style="font-style:normal;font-variant:normal;font-weight:400;font-size:3.88606763px;line-height:125%;font-family:'Segoe UI Emoji';text-align:start;letter-spacing:0px;word-spacing:0px;text-anchor:start;fill:#000000;fill-opacity:1;stroke:none;stroke-width:0.26458332"
         xml:space="preserve"><tspan
           id="tspan1348-63-0-1-8"
           y="189.98271"
           x="98.743851"
           sodipodi:role="line"
           style="stroke-width:0.26458332"><tspan
             id="tspan1344-4-9-6-1"
             style="font-style:normal;font-variant:normal;font-weight:400;font-size:3.88606763px;font-family:'Segoe UI Emoji';fill:#000000;stroke-width:0.26458332"
             dy="0"
             dx="0">▼</tspan><tspan
             id="tspan1346-46-7-4-0"
             style="font-style:normal;font-variant:normal;font-weight:400;font-size:3.88606763px;font-family:Calibri;fill:#000000;stroke-width:0.26458332"
             dy="0"
             dx="0"> </tspan></tspan></text>
    </g>
    <text
       transform="matrix(-0.77972953,0.40633705,-0.5226179,-1.0101464,0,0)"
       id="text1350-76-98-2-2"
       y="-145.29723"
       x="-16.258133"
       style="font-style:normal;font-variant:normal;font-weight:400;font-size:4.41970778px;line-height:125%;font-family:'Segoe UI Emoji';text-align:start;letter-spacing:0px;word-spacing:0px;text-anchor:start;display:inline;fill:#0c7cba;fill-opacity:1;stroke:none;stroke-width:0.30091622"
       xml:space="preserve"><tspan
         id="tspan1348-63-0-1-4"
         y="-145.29723"
         x="-16.258133"
         sodipodi:role="line"
         style="fill:#0c7cba;fill-opacity:1;stroke-width:0.30091622"><tspan
           id="tspan1344-4-9-6-7"
           style="font-style:normal;font-variant:normal;font-weight:400;font-size:4.41970778px;font-family:'Segoe UI Emoji';fill:#0c7cba;fill-opacity:1;stroke-width:0.30091622"
           dy="0"
           dx="0">▼</tspan><tspan
           id="tspan1346-46-7-4-2"
           style="font-style:normal;font-variant:normal;font-weight:400;font-size:4.41970778px;font-family:Calibri;fill:#0c7cba;fill-opacity:1;stroke-width:0.30091622"
           dy="0"
           dx="0"> </tspan></tspan></text>
    <text
       id="text7933"
       y="148.33107"
       x="128.68741"
       style="font-style:normal;font-variant:normal;font-weight:400;font-size:3.88606763px;line-height:125%;font-family:'Cambria Math';text-align:start;letter-spacing:0px;word-spacing:0px;text-anchor:start;fill:#000000;fill-opacity:1;stroke:none;stroke-width:0.26458332"
       xml:space="preserve"><tspan
         id="tspan7931"
         y="148.33107"
         x="128.68741"
         sodipodi:role="line"
         style="font-size:6.3499999px;stroke-width:0.26458332"><tspan
           id="tspan7923"
           style="font-style:normal;font-variant:normal;font-weight:400;font-size:6.3499999px;font-family:'Cambria Math';fill:#000000;stroke-width:0.26458332"
           dy="0 0 0 0 0"
           dx="0 0.28722137 0 0 0">i =5%pav</tspan><tspan
           id="tspan7929"
           style="font-style:normal;font-variant:normal;font-weight:400;font-size:6.3499999px;font-family:Calibri;fill:#000000;stroke-width:0.26458332"
           dy="0"
           dx="0"> </tspan></tspan></text>
    <text
       id="text7964"
       y="136.42482"
       x="80.684441"
       style="font-style:normal;font-variant:normal;font-weight:400;font-size:3.88606763px;line-height:125%;font-family:'Cambria Math';text-align:start;letter-spacing:0px;word-spacing:0px;text-anchor:start;fill:#000000;fill-opacity:1;stroke:none;stroke-width:0.26458332"
       xml:space="preserve"><tspan
         id="tspan7962"
         y="136.42482"
         x="80.684441"
         sodipodi:role="line"
         style="font-size:5.64444447px;stroke-width:0.26458332"><tspan
           id="tspan7952"
           style="font-style:normal;font-variant:normal;font-weight:400;font-size:5.64444447px;font-family:'Cambria Math';fill:#000000;stroke-width:0.26458332"
           dy="0 0 0 0 0 0"
           dx="0 0 0 0 0 0">VP=$¿?</tspan><tspan
           id="tspan7960"
           style="font-style:normal;font-variant:normal;font-weight:400;font-size:5.64444447px;font-family:Calibri;fill:#000000;stroke-width:0.26458332"
           dy="0"
           dx="0"> </tspan></tspan></text>
    <text
       id="text7995"
       y="94.091484"
       x="79.739502"
       style="font-style:normal;font-variant:normal;font-weight:400;font-size:3.88606763px;line-height:125%;font-family:'Cambria Math';text-align:start;letter-spacing:0px;word-spacing:0px;text-anchor:start;fill:#000000;fill-opacity:1;stroke:none;stroke-width:0.26458332"
       xml:space="preserve"><tspan
         id="tspan7993"
         y="94.091484"
         x="79.739502"
         sodipodi:role="line"
         style="font-size:5.64444447px;stroke-width:0.26458332">ff</tspan></text>
    <path
       style="fill:none;stroke:#000000;stroke-width:0.565;stroke-linecap:butt;stroke-linejoin:miter;stroke-miterlimit:4;stroke-dasharray:3.39, 0.565;stroke-dashoffset:0;stroke-opacity:1"
       d="m 85.044641,78.46429 0.18899,37.04167"
       id="path8015"
       inkscape:connector-curvature="0" />
  </g>
</svg>
